%YAML 1.1
%TAG !u! tag:unity3d.com,2011:
--- !u!21 &2100000
Material:
  serializedVersion: 6
  m_ObjectHideFlags: 0
  m_CorrespondingSourceObject: {fileID: 0}
  m_PrefabInstance: {fileID: 0}
  m_PrefabAsset: {fileID: 0}
  m_Name: IKSMR1
  m_Shader: {fileID: 4800000, guid: 860bed2eefd88c549ba1a32040c88815, type: 3}
  m_ShaderKeywords: 
  m_LightmapFlags: 4
  m_EnableInstancingVariants: 0
  m_DoubleSidedGI: 0
  m_CustomRenderQueue: -1
  stringTagMap: {}
  disabledShaderPasses: []
  m_SavedProperties:
    serializedVersion: 3
    m_TexEnvs:
    - _MainTex:
        m_Texture: {fileID: 0}
        m_Scale: {x: 1, y: 1}
        m_Offset: {x: 0, y: 0}
    m_Floats:
    - _AlphaTest: 0
    - _Cull: 2
    - _Cutoff: 0
    - _NearClip: 0
    m_Colors:
    - _Color: {r: 0.8, g: 0.8, b: 0.8, a: 1}
    - _Spread00: {r: 40, g: 40, b: 40, a: 1}
    - _Spread01: {r: 40, g: 40, b: 80, a: 1}
    - _Spread10: {r: 90, g: 90, b: 45, a: 1}
    - _Spread11: {r: 30, g: 60, b: 135, a: 1}
    - _Spread20: {r: 60, g: 60, b: 60, a: 1}
    - _Spread21: {r: 30, g: 15, b: 30, a: 1}
    - _Spread30: {r: 60, g: 60, b: 9, a: 0}
    - _Spread40: {r: 20, g: 25, b: 9, a: 1}
    - _Spread41: {r: 40, g: 9, b: 9, a: 1}
    - _Spread50: {r: 45, g: 20, b: 9, a: 1}
    - _Spread51: {r: 45, g: 9, b: 9, a: 1}
